#;Cognito;Hauptvermittlersicht;Vermittlernummer;Name;Vorname;E-Mail;Bemerkung
1;N;J;1020304050;nachname1;vorname1;spam@andsafe.de;Generalvermittler Beispiel
2;J;J;1020304051;nachname2;vorname2;spam2@andsafe.de;Haupvermittler Beispiel
3;J;N;1020304052;nachname3;vorname3;spam3@andsafe.de;Untervermittler Beispiel